{
    "zookeeper": {
        "ip_address": "zoo",
        "port": "2181"
    },
    "me": {
        "id": 6,
        "alias": "asia-2",
        "priority": 255
    },
    "leader": {
        "id": 1,
        "alias": "us-1",
        "priority": 255
    },
    "nodes": [
        {
            "id": 1,
            "alias": "us-1",
            "priority": 255
        },
        {
            "id": 2,
            "alias": "uk-1",
            "priority": 255
        },
        {
            "id": 3,
            "alias": "asia-1",
            "priority": 255
        },
        {
            "id": 4,
            "alias": "sydney",
            "priority": 255
        },
        {
            "id": 5,
            "alias": "brazil",
            "priority": 255
        },
        {
            "id": 6,
            "alias": "asia-2",
            "priority": 255
        },
        {
            "id": 7,
            "alias": "uk-2",
            "priority": 255
        },
        {
            "id": 8,
            "alias": "us-2",
            "priority": 255
        }
    ],
    "resources": [
        {
            "alias": "PaymentSource",
            "ip_address": "ec2-52-215-48-244.eu-west-1.compute.amazonaws.com",
            "port": 27017,
            "first_to_access": {
                "id": 2,
                "alias": "uk-1",
                "priority": 255
            },
            "nodes": [
                {
                    "id": 4,
                    "alias": "sydney",
                    "priority": 255
                }
            ]
        },
        {
            "alias": "ReservationSource",
            "ip_address": "mongodb",
            "port": 27017,
            "first_to_access": {
                "id": 3,
                "alias": "asia-1",
                "priority": 255
            },
            "nodes": [
                {
                    "id": 4,
                    "alias": "sydney",
                    "priority": 255
                }
            ]
        }
    ]
}